rx/uart_rx_tb.vcd
$date
	Tue Dec 24 15:49:03 2024
$end
$version
	Icarus Verilog
$end
$timescale
	1ps
$end
$scope module uart_rx_tb $end
$var wire 1 ! rx_received $end
$var wire 8 " rx_data [7:0] $end
$var reg 1 # clk $end
$var reg 1 $ rst $end
$var reg 1 % rx_bit_in $end
$var integer 32 & i [31:0] $end
$scope module rx $end
$var wire 1 % bit_in $end
$var wire 1 # clk $end
$var wire 8 ' data_out [7:0] $end
$var wire 1 ! received_byte $end
$var wire 1 $ rst $end
$var wire 8 ( output_next [7:0] $end
$var reg 4 ) bit_counter [3:0] $end
$var reg 1 * received_data $end
$var reg 8 + shift_reg [7:0] $end
$var reg 1 , start_bit_on $end
$upscope $end
$upscope $end
$enddefinitions $end
#0
$dumpvars
0,
b0 +
0*
b0 )
b1 (
b0 '
b0 &
1%
1$
0#
b0 "
0!
$end
#1000
0$
b1 &
1#
#2000
b10 &
0#
#3000
b11 &
1#
#4000
b100 &
0#
#5000
b101 &
1#
#6000
b110 &
0#
b0 (
0%
#7000
1,
b111 &
1#
#8000
b1000 &
0#
b1 (
1%
#9000
b11 (
b1 )
b1 "
b1 '
b1 +
b1001 &
1#
#10000
b1010 &
0#
b10 (
0%
#11000
b100 (
b10 )
b10 "
b10 '
b10 +
b1011 &
1#
#12000
b1100 &
0#
b101 (
1%
#13000
b1011 (
b11 )
b101 "
b101 '
b101 +
b1101 &
1#
#14000
b1110 &
0#
b1010 (
0%
#15000
b10100 (
b100 )
b1010 "
b1010 '
b1010 +
b1111 &
1#
#16000
b10000 &
0#
b10101 (
1%
#17000
b101011 (
b101 )
b10101 "
b10101 '
b10101 +
b10001 &
1#
#18000
b10010 &
0#
#19000
b1010111 (
b110 )
b101011 "
b101011 '
b101011 +
b10011 &
1#
#20000
b10100 &
0#
b1010110 (
0%
#21000
b10101100 (
b111 )
b1010110 "
b1010110 '
b1010110 +
b10101 &
1#
#22000
b10110 &
0#
#23000
b1011000 (
b1000 )
b10101100 "
b10101100 '
b10101100 +
b10111 &
1#
#24000
1!
1*
b11000 &
0#
b1011001 (
1%
#25000
b1 (
0,
b0 "
b0 '
b0 +
0!
0*
b0 )
b11001 &
1#
#26000
b11010 &
0#
b0 (
0%
#27000
1,
b11011 &
1#
#28000
b11100 &
0#
#29000
b1 )
b11101 &
1#
#30000
b11110 &
0#
b1 (
1%
#31000
b11 (
b10 )
b1 "
b1 '
b1 +
b11111 &
1#
#32000
b100000 &
0#
#33000
b111 (
b11 )
b11 "
b11 '
b11 +
b100001 &
1#
#34000
b100010 &
0#
#35000
b1111 (
b100 )
b111 "
b111 '
b111 +
b100011 &
1#
#36000
b100100 &
0#
b1110 (
0%
#37000
b11100 (
b101 )
b1110 "
b1110 '
b1110 +
b100101 &
1#
#38000
b100110 &
0#
#39000
b111000 (
b110 )
b11100 "
b11100 '
b11100 +
b100111 &
1#
#40000
b101000 &
0#
b111001 (
1%
#41000
b1110011 (
b111 )
b111001 "
b111001 '
b111001 +
b101001 &
1#
#42000
b101010 &
0#
#43000
b11100111 (
b1000 )
b1110011 "
b1110011 '
b1110011 +
b101011 &
1#
#44000
1!
1*
b101100 &
0#
#45000
b1 (
0,
b0 "
b0 '
b0 +
0!
0*
b0 )
b101101 &
1#
#46000
b101110 &
0#
#47000
b101111 &
1#
#48000
b110000 &
0#
#49000
b110001 &
1#
#50000
b110010 &
0#
#51000
b110011 &
1#
#52000
b110100 &
0#
1$
#53000
b110101 &
1#
#54000
b110110 &
0#
#55000
b110111 &
1#
#56000
b111000 &
0#
#57000
b111001 &
1#
#58000
b111010 &
0#
#59000
b111011 &
1#
#60000
b111100 &
0#
#61000
b111101 &
1#
#62000
b111110 &
0#
#63000
b111111 &
1#
#64000
b1000000 &
0#
#65000
b1000001 &
1#
#66000
b1000010 &
0#
#67000
b1000011 &
1#
#68000
b1000100 &
0#
#69000
b1000101 &
1#
#70000
b1000110 &
0#
#71000
b1000111 &
1#
#72000
b1001000 &
0#
#73000
b1001001 &
1#
#74000
b1001010 &
0#
#75000
b1001011 &
1#
#76000
b1001100 &
0#
#77000
b1001101 &
1#
#78000
b1001110 &
0#
#79000
b1001111 &
1#
#80000
b1010000 &
0#
#81000
b1010001 &
1#
#82000
b1010010 &
0#
#83000
b1010011 &
1#
#84000
b1010100 &
0#
#85000
b1010101 &
1#
#86000
b1010110 &
0#
#87000
b1010111 &
1#
#88000
b1011000 &
0#
#89000
b1011001 &
1#
#90000
b1011010 &
0#
#91000
b1011011 &
1#
#92000
b1011100 &
0#
#93000
b1011101 &
1#
#94000
b1011110 &
0#
#95000
b1011111 &
1#
#96000
b1100000 &
0#
#97000
b1100001 &
1#
#98000
b1100010 &
0#
#99000
b1100011 &
1#
#100000
b1100100 &
0#
#101000
b1100101 &
1#
#102000
b1100110 &
0#
#103000
b1100111 &
1#
#104000
b1101000 &
0#
#105000
b1101001 &
1#
#106000
b1101010 &
0#
#107000
b1101011 &
1#
#108000
b1101100 &
0#
#109000
b1101101 &
1#
#110000
b1101110 &
0#
#111000
b1101111 &
1#
#112000
b1110000 &
0#
#113000
b1110001 &
1#
#114000
b1110010 &
0#
#115000
b1110011 &
1#
#116000
b1110100 &
0#
#117000
b1110101 &
1#
#118000
b1110110 &
0#
#119000
b1110111 &
1#
#120000
b1111000 &
0#
#121000
b1111001 &
1#
#122000
b1111010 &
0#
#123000
b1111011 &
1#
#124000
b1111100 &
0#
#125000
b1111101 &
1#
#126000
b1111110 &
0#
#127000
b1111111 &
1#
#128000
b10000000 &
0#
